Tidy Tuesday 2
…
country_results_df <- country_results_df %>%
  select(!p7) %>%
  mutate(totalscore = p1 + p2 + p3 + p4 + p5 + p6)

p1 <- country_results_df %>%
  na.omit() %>%
  group_by(year) %>%
  summarize(meanp1 = mean(p1))

p1 <- p1 %>%
  mutate(propp1 = meanp1 / 42)

p1

# A tibble: 37 × 3
    year meanp1 propp1
   <dbl>  <dbl>  <dbl>
 1  1988   16.5  0.393
 2  1989   11.6  0.276
 3  1990   21.7  0.516
 4  1991   16.4  0.390
 5  1992   17.4  0.414
 6  1993   11.8  0.280
 7  1994   15.6  0.371
 8  1995   31    0.738
 9  1996   20.1  0.479
10  1997   15.1  0.361
# ℹ 27 more rows

p2 <- country_results_df %>%
  na.omit() %>%
  group_by(year) %>%
  summarize(meanp2 = mean(p2))

p2 <- p2 %>%
  mutate(propp2 = meanp2 / 42)

p2

# A tibble: 37 × 3
    year meanp2 propp2
   <dbl>  <dbl>  <dbl>
 1  1988  12     0.286
 2  1989  23.2   0.552
 3  1990  20     0.476
 4  1991  16.3   0.387
 5  1992  12     0.286
 6  1993  10.3   0.246
 7  1994  28.6   0.681
 8  1995   7.82  0.186
 9  1996  13.8   0.327
10  1997  20.7   0.493
# ℹ 27 more rows

p3 <- country_results_df %>%
  na.omit() %>%
  group_by(year) %>%
  summarize(meanp3 = mean(p3))

p3 <- p3 %>%
  mutate(propp3 = meanp3 / 42)

p3

# A tibble: 37 × 3
    year meanp3 propp3
   <dbl>  <dbl>  <dbl>
 1  1988   4.5  0.107 
 2  1989   3.8  0.0905
 3  1990  11    0.262 
 4  1991  11.9  0.284 
 5  1992   7.2  0.171 
 6  1993   8.89 0.212 
 7  1994  22.9  0.545 
 8  1995  15    0.357 
 9  1996  16.9  0.402 
10  1997  10    0.238 
# ℹ 27 more rows

p4 <- country_results_df %>%
  na.omit() %>%
  group_by(year) %>%
  summarize(meanp4 = mean(p4))

p4 <- p4 %>%
  mutate(propp4 = meanp4 / 42)

p4

# A tibble: 37 × 3
    year meanp4 propp4
   <dbl>  <dbl>  <dbl>
 1  1988   4.25  0.101
 2  1989  23     0.548
 3  1990  15     0.357
 4  1991  11     0.262
 5  1992  14.8   0.352
 6  1993  13.8   0.328
 7  1994  19.8   0.471
 8  1995  25.9   0.617
 9  1996  15.2   0.363
10  1997  27.4   0.653
# ℹ 27 more rows

p5 <- country_results_df %>%
  na.omit() %>%
  group_by(year) %>%
  summarize(meanp5 = mean(p5))

p5 <- p5 %>%
  mutate(propp5 = meanp5 / 42)

p5

# A tibble: 37 × 3
    year meanp5 propp5
   <dbl>  <dbl>  <dbl>
 1  1988  18.2  0.435 
 2  1989  16.6  0.395 
 3  1990  28.3  0.675 
 4  1991  16.9  0.402 
 5  1992   4.6  0.110 
 6  1993  21.1  0.503 
 7  1994  19.2  0.457 
 8  1995  17.5  0.418 
 9  1996   3.88 0.0923
10  1997  20.1  0.480 
# ℹ 27 more rows

p6 <- country_results_df %>%
  na.omit() %>%
  group_by(year) %>%
  summarize(meanp6 = mean(p6))

p6 <- p6 %>%
  mutate(propp6 = meanp6 / 42)

p6

# A tibble: 37 × 3
    year meanp6 propp6
   <dbl>  <dbl>  <dbl>
 1  1988   1.5  0.0357
 2  1989  17.8  0.424 
 3  1990  11.3  0.270 
 4  1991   5.73 0.137 
 5  1992  10    0.238 
 6  1993  10    0.238 
 7  1994  12.9  0.307 
 8  1995   5.09 0.121 
 9  1996  17    0.405 
10  1997   3.86 0.0918
# ℹ 27 more rows
…
